{
    "pagination": {
        "pageSize": 50,
        "currentPage": 14,
        "totalItems": 651,
        "totalPages": 14
    },
    "resourceBaseUri": "http://reports.sem-o.com/documents",
    "items": [
        {
            "_id": "5dbc87bc9620d965f72ac904",
            "Date": "2019-11-01",
            "PublishTime": "2019-11-01T19:05:34",
            "DPuG_ID": "BM-095",
            "ReportName": "Balancing and Imbalance Market Cost View",
            "Group": [
                "Settlement Data"
            ],
            "Dynamic": true,
            "ResourceName": "PUB_30MinImbalCost_201911011800.xml"
        }
    ]
}